// Jest Snapshot v1, https://goo.gl/fbAQLP

exports[`should close modal after clicking on it 1`] = `
<div>
  <div
    class="Button__ButtonContainer-ehu7d2-0 ewSuod"
    data-testid="button"
  >
    button
  </div>
</div>
`;

exports[`should open modal after clicking the button 1`] = `
<div>
  <div
    class="Button__ButtonContainer-ehu7d2-0 ewSuod"
    data-testid="button"
  >
    button
  </div>
  <div
    class="Modal__ModalContainer-obrbup-0 fuKoyC"
  >
    <div
      class="Modal__ModalContent-obrbup-1 iYzyLl"
      data-testid="modal"
    >
      Dummy Data
    </div>
  </div>
</div>
`;
