// Jest Snapshot v1, https://goo.gl/fbAQLP

exports[`shows content properly 1`] = `
<div>
  <div
    class="WarningHeader__Row-sc-1prj2z8-0 fdzsVn"
  >
    <div
      class="WarningHeader__Triangle-sc-1prj2z8-1 exEOjJ"
    >
      <div
        class="WarningHeader__VerticalLine-sc-1prj2z8-2 jFXkmM"
      />
      <div
        class="WarningHeader__InnerCircle-sc-1prj2z8-3 fOQfUj"
      />
    </div>
    <div
      class="WarningHeader__HeaderTitle-sc-1prj2z8-4 cbnKOC"
    >
      Dummy header
    </div>
  </div>
</div>
`;
